# Blender v2.76 (sub 0) OBJ File: 'interior.blend'
# www.blender.org
mtllib interior-colider-chair_3.mtl
o 큐브.024_큐브.025
v -2.611668 0.002913 -10.875605
v -2.611668 2.343361 -10.875605
v -2.611668 0.002913 -10.981456
v -2.611668 2.343361 -10.981456
v -1.553043 0.002913 -10.875605
v -1.553043 2.343361 -10.875605
v -1.553043 0.002913 -10.981456
v -1.553043 2.343361 -10.981456
vn -1.000000 0.000000 0.000000
vn 0.000000 0.000000 -1.000000
vn 1.000000 0.000000 0.000000
vn 0.000000 0.000000 1.000000
vn 0.000000 -1.000000 0.000000
vn 0.000000 1.000000 0.000000
usemtl None
s off
f 2//1 4//1 3//1 1//1
f 4//2 8//2 7//2 3//2
f 8//3 6//3 5//3 7//3
f 6//4 2//4 1//4 5//4
f 1//5 3//5 7//5 5//5
f 6//6 8//6 4//6 2//6
o 큐브.025_큐브.026
v -2.541954 0.002913 -10.103102
v -2.541954 0.995396 -10.103102
v -2.541954 0.002913 -10.168312
v -2.541954 0.995396 -10.168312
v -1.636994 0.002913 -10.103102
v -1.636994 0.995396 -10.103102
v -1.636994 0.002913 -10.168312
v -1.636994 0.995396 -10.168312
vn -1.000000 0.000000 0.000000
vn 0.000000 0.000000 -1.000000
vn 1.000000 0.000000 0.000000
vn 0.000000 0.000000 1.000000
vn 0.000000 -1.000000 0.000000
vn 0.000000 1.000000 0.000000
usemtl None
s off
f 10//7 12//7 11//7 9//7
f 12//8 16//8 15//8 11//8
f 16//9 14//9 13//9 15//9
f 14//10 10//10 9//10 13//10
f 9//11 11//11 15//11 13//11
f 14//12 16//12 12//12 10//12
o 큐브.026_큐브.027
v -2.556824 0.985360 -10.082413
v -2.556824 1.080678 -10.082413
v -2.556824 0.985360 -10.876563
v -2.556824 1.080678 -10.876563
v -1.596542 0.985360 -10.082413
v -1.596542 1.080678 -10.082413
v -1.596542 0.985360 -10.876563
v -1.596542 1.080678 -10.876563
vn -1.000000 0.000000 0.000000
vn 0.000000 0.000000 -1.000000
vn 1.000000 0.000000 0.000000
vn 0.000000 0.000000 1.000000
vn 0.000000 -1.000000 0.000000
vn 0.000000 1.000000 0.000000
usemtl None
s off
f 18//13 20//13 19//13 17//13
f 20//14 24//14 23//14 19//14
f 24//15 22//15 21//15 23//15
f 22//16 18//16 17//16 21//16
f 17//17 19//17 23//17 21//17
f 22//18 24//18 20//18 18//18
