# Blender v2.76 (sub 0) OBJ File: 'interior.blend'
# www.blender.org
mtllib tv_screen.mtl
o Plane002
v 4.892295 2.238432 -1.485329
v 4.892295 1.834525 -1.485329
v 4.892295 2.238432 -0.840346
v 4.892295 1.834525 -0.840346
v 4.892295 2.238432 -0.195364
v 4.892295 1.834525 -0.195364
v 4.892295 2.238432 0.449619
v 4.892295 1.834525 0.449619
v 4.892295 2.238432 1.094601
v 4.892295 1.834525 1.094601
v 4.892295 2.642339 -1.485329
v 4.892295 2.642339 -0.840346
v 4.892295 2.642339 -0.195364
v 4.892295 2.642339 0.449619
v 4.892295 2.642339 1.094602
v 4.892295 3.046247 -1.485329
v 4.892295 3.046247 -0.840346
v 4.892295 3.046246 -0.195364
v 4.892295 3.046246 0.449619
v 4.892295 3.046246 1.094602
v 4.892295 3.450153 -1.485329
v 4.892295 3.450153 -0.840346
v 4.892295 3.450153 -0.195364
v 4.892295 3.450153 0.449619
v 4.892295 3.450153 1.094602
vt 0.000535 0.250371
vt 0.000535 0.000742
vt 0.250268 0.250371
vt 0.250268 0.000742
vt 0.500000 0.250371
vt 0.500000 0.000742
vt 0.749733 0.250371
vt 0.749733 0.000742
vt 0.999465 0.250371
vt 0.999465 0.000742
vt 0.000535 0.500000
vt 0.250268 0.500000
vt 0.500000 0.500000
vt 0.749733 0.500000
vt 0.999465 0.500000
vt 0.000535 0.749629
vt 0.250268 0.749629
vt 0.500000 0.749629
vt 0.749733 0.749629
vt 0.999465 0.749629
vt 0.000535 0.999257
vt 0.250268 0.999258
vt 0.500000 0.999258
vt 0.749733 0.999258
vt 0.999465 0.999258
vn -1.000000 0.000000 0.000000
usemtl lambert5SG
s off
f 1/1/1 2/2/1 3/3/1
f 4/4/1 3/3/1 2/2/1
f 3/3/1 4/4/1 5/5/1
f 6/6/1 5/5/1 4/4/1
f 5/5/1 6/6/1 7/7/1
f 8/8/1 7/7/1 6/6/1
f 7/7/1 8/8/1 9/9/1
f 10/10/1 9/9/1 8/8/1
f 11/11/1 1/1/1 12/12/1
f 3/3/1 12/12/1 1/1/1
f 12/12/1 3/3/1 13/13/1
f 5/5/1 13/13/1 3/3/1
f 13/13/1 5/5/1 14/14/1
f 7/7/1 14/14/1 5/5/1
f 14/14/1 7/7/1 15/15/1
f 9/9/1 15/15/1 7/7/1
f 16/16/1 11/11/1 17/17/1
f 12/12/1 17/17/1 11/11/1
f 17/17/1 12/12/1 18/18/1
f 13/13/1 18/18/1 12/12/1
f 18/18/1 13/13/1 19/19/1
f 14/14/1 19/19/1 13/13/1
f 19/19/1 14/14/1 20/20/1
f 15/15/1 20/20/1 14/14/1
f 21/21/1 16/16/1 22/22/1
f 17/17/1 22/22/1 16/16/1
f 22/22/1 17/17/1 23/23/1
f 18/18/1 23/23/1 17/17/1
f 23/23/1 18/18/1 24/24/1
f 19/19/1 24/24/1 18/18/1
f 24/24/1 19/19/1 25/25/1
f 20/20/1 25/25/1 19/19/1
